[
  "min_Z_Time",
  "min_Res_Value",
  "max_Res_Time",
  "HIC_Value",
  "HIC_T2",
  "3ms_Cum_Res_Value",
  "Nce_Value",
  "Nce_Time",
  "Nij_Value",
  "USNCAP_P_Femur_left",
  "max_Y_Value",
  "max_Z_Time",
  "Ncf_Time",
  "max_X_Value",
  "min_Res_Time",
  "max_Res_Value",
  "max_X_MO_total_Time",
  "min_X_Time",
  "min_Y_Value",
  "HIC36_T2",
  "USNCAP_P_Neck_Tension",
  "USNCAP_P_Neck_Nij",
  "USNCAP_P_Chest",
  "min_Y_Time",
  "HIC15_T2",
  "3ms_Cont_Res_Value",
  "3ms_Cum_Res_T1",
  "USNCAP_P_Femur",
  "max_Y_Time",
  "HIC_T1",
  "3ms_Cum_Res_T2",
  "USNCAP_P_Head",
  "Ncf_Value",
  "Ntf_Time",
  "USNCAP_P_Femur_right",
  "min_X_Value",
  "max_Z_Value",
  "HIC36_Value",
  "USNCAP_P_Neck_Compression",
  "min_X_MO_total_Value",
  "max_X_MO_total_Value",
  "min_Y_MO_total_Value",
  "min_Y_MO_total_Time",
  "Ntf_Value",
  "Nij_Time",
  "max_X_Time",
  "min_Z_Value",
  "HIC36_T1",
  "HIC15_Value",
  "HIC15_T1",
  "3ms_Cont_Res_T1",
  "3ms_Cont_Res_T2",
  "min_X_MO_total_Time",
  "max_Y_MO_total_Value",
  "max_Y_MO_total_Time",
  "Nte_Value",
  "Nte_Time",
  "USNCAP_P_Neck"
]